<svg xmlns="http://www.w3.org/2000/svg" xmlns:xlink="http://www.w3.org/1999/xlink">
    <symbol id="account" viewBox="0 0 28 28">
        <path d="M0,0H28V28H0Z" fill="none"/>
        <path d="M13.667,2A11.667,11.667,0,1,0,25.333,13.667,11.671,11.671,0,0,0,13.667,2ZM7.915,20.993c.5-1.05,3.558-2.077,5.752-2.077s5.262,1.027,5.752,2.077a9.246,9.246,0,0,1-11.5,0ZM21.087,19.3c-1.668-2.03-5.717-2.718-7.42-2.718s-5.752.688-7.42,2.718a9.333,9.333,0,1,1,14.84,0ZM13.667,6.667A4.083,4.083,0,1,0,17.75,10.75,4.073,4.073,0,0,0,13.667,6.667Zm0,5.833a1.75,1.75,0,1,1,1.75-1.75A1.748,1.748,0,0,1,13.667,12.5Z"
              transform="translate(0.333 0.333)" fill="#294d9c"/>
    </symbol>
    <symbol id="arrow_down" viewBox="0 0 24 24">

        <path d="M0,0H24V24H0Z" fill="none"/>
        <path d="M7.41,8.59,12,13.17l4.59-4.58L18,10l-6,6L6,10Z" fill="#232323"/>
    </symbol>
    <symbol id="arrow_right" viewBox="0 0 24 24">
        <path fill="#707070" d="M16.01 11H4v2h12.01v3L20 12l-3.99-4z"/>
    </symbol>
    <symbol id="arrow_up" viewBox="0 0 18 18">
        <path d="M12.443 11.5581L9 8.12311L5.557 11.5581L4.5 10.5001L9 6.00011L13.5 10.5001L12.443 11.5581Z"
              fill="#232323"/>
    </symbol>
    <symbol id="back" viewBox="0 0 24 24">
        <g transform="translate(24) rotate(90)">
            <path d="M0,0H24V24H0Z" fill="none"/>
            <path d="M20,12l-1.41-1.41L13,16.17V4H11V16.17L5.42,10.58,4,12l8,8Z" fill="#294d9c"/>
        </g>
    </symbol>
    <symbol id="bg-folder" viewBox="0 0 187.698 187.698">
        <path d="M65.4,4H17.85A15.989,15.989,0,0,0,2.079,20.163L2,117.14A16.056,16.056,0,0,0,17.85,133.3h126.8A16.056,16.056,0,0,0,160.5,117.14V36.326a16.056,16.056,0,0,0-15.85-16.163H81.25Z"
              transform="translate(12.599 25.197)" fill="#eee"/>
        <path d="M0,0H187.7V187.7H0Z" fill="none"/>
    </symbol>
    <symbol id="check" viewBox="0 0 24 24">
        <path d="M9 16.17L4.83 12l-1.42 1.41L9 19 21 7l-1.41-1.41z"/>
    </symbol>
    <symbol id="clients" viewBox="0 0 18 18">
        <path d="M0,0H18V18H0Z" fill="none"/>
        <path d="M10,5.5A1.5,1.5,0,1,1,8.5,7,1.5,1.5,0,0,1,10,5.5m0,6.75c2.025,0,4.35.968,4.5,1.5v.75h-9v-.743c.15-.54,2.475-1.507,4.5-1.507M10,4a3,3,0,1,0,3,3A3,3,0,0,0,10,4Zm0,6.75c-2,0-6,1.005-6,3V16H16V13.75C16,11.755,12,10.75,10,10.75Z"
              transform="translate(-1 -1)" fill="#232323"/>
    </symbol>
    <symbol id="close" viewBox="0 0 24 24">
        <path d="M19 6.41L17.59 5 12 10.59 6.41 5 5 6.41 10.59 12 5 17.59 6.41 19 12 13.41 17.59 19 19 17.59 13.41 12z"/>
    </symbol>
    <symbol id="count" viewBox="0 0 12 14">
        <path d="M5.99333 11.36L1.08 7.54L0 8.38L6 13.0467L12 8.38L10.9133 7.53333L5.99333 11.36ZM6 9.66667L10.9067 5.84667L12 5L6 0.333333L0 5L1.08667 5.84667L6 9.66667ZM6 2.02L9.82667 5L6 7.98L2.17333 5L6 2.02Z"
              fill="black" fill-opacity="0.54"/>
    </symbol>
    <symbol id="date_range" viewBox="0 0 24 24">
        <path d="M0,0H24V24H0Z" fill="none"/>
        <path d="M7,11H9v2H7ZM21,6V20a2.006,2.006,0,0,1-2,2H5a2,2,0,0,1-2-2L3.01,6A1.991,1.991,0,0,1,5,4H6V2H8V4h8V2h2V4h1A2.006,2.006,0,0,1,21,6ZM5,8H19V6H5ZM19,20V10H5V20Zm-4-7h2V11H15Zm-4,0h2V11H11Z"/>
    </symbol>
    <symbol id="delete" viewBox="0 0 24 24">
        <path d="M6,19a2.006,2.006,0,0,0,2,2h8a2.006,2.006,0,0,0,2-2V7H6ZM8,9h8V19H8Zm7.5-5-1-1h-5l-1,1H5V6H19V4Z"/>
        <path d="M0,0H24V24H0Z" fill="none"/>
    </symbol>
    <symbol id="dislake" viewBox="0 0 22 20">
        <path d="M14 0H5C4.17 0 3.46 0.5 3.16 1.22L0.14 8.27C0.05 8.5 0 8.74 0 9V11C0 12.1 0.9 13 2 13H8.31L7.36 17.57L7.33 17.89C7.33 18.3 7.5 18.68 7.77 18.95L8.83 20L15.41 13.41C15.78 13.05 16 12.55 16 12V2C16 0.9 15.1 0 14 0ZM14 12L9.66 16.34L10.77 11H2V9L5 2H14V12ZM18 0H22V12H18V0Z"
              fill="white"/>
    </symbol>
    <symbol id="documents" viewBox="0 0 18 18">
        <path d="M0,0H18V18H0Z" fill="none"/>
        <path d="M11.5,2h-6A1.5,1.5,0,0,0,4.008,3.5L4,15.5A1.5,1.5,0,0,0,5.492,17H14.5A1.5,1.5,0,0,0,16,15.5v-9Zm-6,13.5V3.5h5.25V7.25H14.5V15.5Z"
              transform="translate(-1 -0.5)" fill="#232323"/>
    </symbol>
    <symbol id="edit" viewBox="0 0 24 24">
        <path d="M0,0H24V24H0Z" fill="none"/>
        <path d="M14.06,9.02l.92.92L5.92,19H5v-.92l9.06-9.06M17.66,3a1,1,0,0,0-.7.29L15.13,5.12l3.75,3.75,1.83-1.83a1,1,0,0,0,0-1.41L18.37,3.29A.982.982,0,0,0,17.66,3Zm-3.6,3.19L3,17.25V21H6.75L17.81,9.94,14.06,6.19Z"/>
    </symbol>
    <symbol id="eye" viewBox="0 0 22 15">
        <path d="M11 2C14.79 2 18.17 4.13 19.82 7.5C18.17 10.87 14.79 13 11 13C7.21 13 3.83 10.87 2.18 7.5C3.83 4.13 7.21 2 11 2ZM11 0C6 0 1.73 3.11 0 7.5C1.73 11.89 6 15 11 15C16 15 20.27 11.89 22 7.5C20.27 3.11 16 0 11 0ZM11 5C12.38 5 13.5 6.12 13.5 7.5C13.5 8.88 12.38 10 11 10C9.62 10 8.5 8.88 8.5 7.5C8.5 6.12 9.62 5 11 5ZM11 3C8.52 3 6.5 5.02 6.5 7.5C6.5 9.98 8.52 12 11 12C13.48 12 15.5 9.98 15.5 7.5C15.5 5.02 13.48 3 11 3Z"
              fill="black" fill-opacity="0.54"/>
    </symbol>
    <symbol id="file" viewBox="0 0 24 24">
        <path d="M14 2H6C5.4713 2.00264 4.96516 2.21452 4.59225 2.58931C4.21933 2.9641 4.00999 3.4713 4.01 4L4 20C3.99999 20.5287 4.20933 21.0359 4.58225 21.4107C4.95516 21.7855 5.4613 21.9974 5.99 22H18C18.5299 21.9984 19.0377 21.7872 19.4125 21.4125C19.7872 21.0377 19.9984 20.5299 20 20V8L14 2ZM6 20V4H13V9H18V20H6Z"/>
    </symbol>
    <symbol id="folder" viewBox="0 0 24 24">
        <path d="M9.17 6L11.17 8H20V18H4V6H9.17ZM10 4H4C3.4713 4.00264 2.96516 4.21452 2.59225 4.58931C2.21933 4.9641 2.00999 5.4713 2.01 6L2 18C2.00158 18.5299 2.2128 19.0377 2.58753 19.4125C2.96227 19.7872 3.47005 19.9984 4 20H20C20.5299 19.9984 21.0377 19.7872 21.4125 19.4125C21.7872 19.0377 21.9984 18.5299 22 18V8C21.9984 7.47005 21.7872 6.96227 21.4125 6.58753C21.0377 6.2128 20.5299 6.00158 20 6H12L10 4Z"/>
    </symbol>
    <symbol id="goods" viewBox="0 0 18 18">
        <path d="M0,0H18V18H0Z" fill="none"/>
        <path d="M16.75,7.255H13.157L9.872,2.335A.744.744,0,0,0,9.25,2.02a.733.733,0,0,0-.622.323L5.342,7.255H1.75a.752.752,0,0,0-.75.75.632.632,0,0,0,.03.2l1.9,6.953a1.492,1.492,0,0,0,1.44,1.095h9.75a1.507,1.507,0,0,0,1.448-1.095l1.905-6.953.022-.2A.752.752,0,0,0,16.75,7.255Zm-7.5-3.15,2.1,3.15H7.15Zm4.875,10.65-9.742.007L2.733,8.755H15.775Zm-4.875-4.5a1.5,1.5,0,1,0,1.5,1.5A1.5,1.5,0,0,0,9.25,10.255Z"
              transform="translate(-0.25 -0.505)" fill="#232323"/>
    </symbol>
    <symbol id="home" viewBox="0 0 18 18">
        <path d="M0,0H18V18H0Z" fill="none"/>
        <path d="M9.5,5.017l3.75,3.375V14.25h-1.5V9.75H7.25v4.5H5.75V8.392L9.5,5.018M9.5,3,2,9.75H4.25v6h4.5v-4.5h1.5v4.5h4.5v-6H17Z"
              transform="translate(-0.5 -0.75)" />
    </symbol>
    <symbol id="info" viewBox="0 0 437.6 437.6">
        <g>
            <path  d="M194,142.8c0.8,1.6,1.6,3.2,2.4,4.4c0.8,1.2,2,2.4,2.8,3.6c1.2,1.2,2.4,2.4,4,3.6c1.2,0.8,2.8,2,4.8,2.4
				c1.6,0.8,3.2,1.2,5.2,1.6c2,0.4,3.6,0.4,5.2,0.4c1.6,0,3.6,0,5.2-0.4c1.6-0.4,3.2-0.8,4.4-1.6h0.4c1.6-0.8,3.2-1.6,4.8-2.8
				c1.2-0.8,2.4-2,3.6-3.2l0.4-0.4c1.2-1.2,2-2.4,2.8-3.6s1.6-2.4,2-4c0-0.4,0-0.4,0.4-0.8c0.8-1.6,1.2-3.6,1.6-5.2
				c0.4-1.6,0.4-3.6,0.4-5.2s0-3.6-0.4-5.2c-0.4-1.6-0.8-3.2-1.6-5.2c-1.2-2.8-2.8-5.2-4.8-7.2c-0.4-0.4-0.4-0.4-0.8-0.8
				c-1.2-1.2-2.4-2-4-3.2c-1.6-0.8-2.8-1.6-4.4-2.4c-1.6-0.8-3.2-1.2-4.8-1.6c-2-0.4-3.6-0.4-5.2-0.4c-1.6,0-3.6,0-5.2,0.4
				c-1.6,0.4-3.2,0.8-4.8,1.6H208c-1.6,0.8-3.2,1.6-4.4,2.4c-1.6,1.2-2.8,2-4,3.2c-1.2,1.2-2.4,2.4-3.2,3.6
				c-0.8,1.2-1.6,2.8-2.4,4.4c-0.8,1.6-1.2,3.2-1.6,4.8c-0.4,2-0.4,3.6-0.4,5.2c0,1.6,0,3.6,0.4,5.2
				C192.8,139.6,193.6,141.2,194,142.8z"/>
            <path  d="M249.6,289.2h-9.2v-98c0-5.6-4.4-10.4-10.4-10.4h-42c-5.6,0-10.4,4.4-10.4,10.4v21.6c0,5.6,4.4,10.4,10.4,10.4h8.4v66.4
				H188c-5.6,0-10.4,4.4-10.4,10.4v21.6c0,5.6,4.4,10.4,10.4,10.4h61.6c5.6,0,10.4-4.4,10.4-10.4V300
				C260,294,255.2,289.2,249.6,289.2z"/>
            <path  d="M218.8,0C98,0,0,98,0,218.8s98,218.8,218.8,218.8s218.8-98,218.8-218.8S339.6,0,218.8,0z M218.8,408.8
				c-104.8,0-190-85.2-190-190s85.2-190,190-190s190,85.2,190,190S323.6,408.8,218.8,408.8z"/>
        </g>
    </symbol>
    <symbol id="like" viewBox="0 0 22 20">
        <path d="M20 7H13.69L14.64 2.43L14.67 2.11C14.67 1.7 14.5 1.32 14.23 1.05L13.17 0L6.59 6.59C6.22 6.95 6 7.45 6 8V18C6 19.1 6.9 20 8 20H17C17.83 20 18.54 19.5 18.84 18.78L21.86 11.73C21.95 11.5 22 11.26 22 11V9C22 7.9 21.1 7 20 7ZM20 11L17 18H8V8L12.34 3.66L11.23 9H20V11ZM0 8H4V20H0V8Z"
              fill="white"/>
    </symbol>
    <symbol id="logo" viewBox="0 0 48 31.385">
        <g transform="translate(-388.814 -1988.053)">
            <g transform="translate(388.814 1988.053)">
                <rect width="3.692" height="31.385" transform="translate(0 0)" fill="#004796"/>
            </g>
            <g transform="translate(433.122 1988.053)">
                <rect width="3.692" height="31.385" transform="translate(0 0)" fill="#004796"/>
            </g>
            <g transform="translate(410.968 1988.053)">
                <rect width="3.692" height="31.385" transform="translate(0 0)" fill="#004796"/>
            </g>
            <g transform="translate(399.891 2003.745)">
                <rect width="3.692" height="15.692" transform="translate(0 0)" fill="#004796"/>
            </g>
            <g transform="translate(422.045 2003.745)">
                <rect width="3.692" height="15.692" transform="translate(0 0)" fill="#004796"/>
            </g>
        </g>
    </symbol>
    <symbol id="main_logo" viewBox="0 0 101 90">
        <path d="M13.0123 0H6.27393V57.1804H13.0123V0Z" fill="#294D9C"/>
        <path d="M13.0123 0H6.27393V57.1804H13.0123V0Z" fill="#294D9C"/>
        <path d="M93.764 0H87.0256V57.1804H93.764V0Z" fill="#294D9C"/>
        <path d="M13.0123 0H6.27393V57.1804H13.0123V0Z" fill="#294D9C"/>
        <path d="M53.3884 0H46.65V57.1804H53.3884V0Z" fill="#294D9C"/>
        <path d="M13.0123 0H6.27393V57.1804H13.0123V0Z" fill="#294D9C"/>
        <path d="M33.2007 28.5902H26.4624V57.1804H33.2007V28.5902Z" fill="#294D9C"/>
        <path d="M13.0123 0H6.27393V57.1804H13.0123V0Z" fill="#294D9C"/>
        <path d="M73.5761 28.5902H66.8378V57.1804H73.5761V28.5902Z" fill="#294D9C"/>
        <path d="M60.0994 68.12C54.0703 68.12 49.1598 73.0033 49.1598 79.0596C49.1598 85.0886 54.043 89.9992 60.0994 89.9992C66.1284 89.9992 71.0389 85.1159 71.0389 79.0596C71.0389 73.0033 66.1557 68.12 60.0994 68.12ZM60.0994 84.5157C57.0712 84.5157 54.6432 82.0605 54.6432 79.0596C54.6432 76.0587 57.0985 73.6034 60.0994 73.6034C63.1275 73.6034 65.5555 76.0587 65.5555 79.0596C65.5555 82.0605 63.1275 84.5157 60.0994 84.5157Z"
              fill="#294D9C"/>
        <path d="M14.7862 75.1857L18.66 71.3118C14.4042 67.056 7.47492 67.056 3.19185 71.3118C-1.06395 75.5676 -1.06395 82.4969 3.19185 86.78C7.44764 91.0358 14.3769 91.0358 18.66 86.78L14.7862 82.9061C12.6583 85.034 9.19361 85.034 7.06571 82.9061C4.93781 80.7782 4.93781 77.3136 7.06571 75.1857C9.19361 73.0578 12.631 73.0578 14.7862 75.1857Z"
              fill="#294D9C"/>
        <path d="M89.1263 68.12C83.0973 68.12 78.1868 73.0033 78.1868 79.0596V89.9992H83.6429V79.0596C83.6429 76.0314 86.0982 73.6034 89.0991 73.6034C92.1272 73.6034 94.5552 76.0587 94.5552 79.0596V89.9992H100.011V79.0596C100.039 73.0033 95.1554 68.12 89.1263 68.12Z"
              fill="#294D9C"/>
        <path d="M89.1263 68.12C83.0973 68.12 78.1868 73.0033 78.1868 79.0596V89.9992H83.6429V79.0596C83.6429 76.0314 86.0982 73.6034 89.0991 73.6034C92.1272 73.6034 94.5552 76.0587 94.5552 79.0596V89.9992H100.011V79.0596C100.039 73.0033 95.1554 68.12 89.1263 68.12Z"
              fill="#294D9C"/>
        <path d="M27.308 79.0604V90H32.7641V79.0604C32.7641 76.0323 35.2194 73.6043 38.2203 73.6043H43.6764V68.1481H38.2203C32.1912 68.1209 27.308 73.0041 27.308 79.0604Z"
              fill="#294D9C"/>
    </symbol>
    <symbol id="remove_circle" viewBox="0 0 24 24">
        <path d="M0,0H24V24H0Z" fill="none"/>
        <path d="M7,11v2H17V11Zm5-9A10,10,0,1,0,22,12,10,10,0,0,0,12,2Zm0,18a8,8,0,1,1,8-8A8.011,8.011,0,0,1,12,20Z"
              fill="#d68282"/>
    </symbol>
    <symbol id="reports" viewBox="0 0 18 18">
        <path d="M0,0H18V18H0Z" fill="none"/>
        <path d="M5,8.15H7.25V15.5H5ZM9.2,5h2.1V15.5H9.2Zm4.2,6h2.1v4.5H13.4Z" transform="translate(-1.25 -1.25)"
              fill="#232323"/>
    </symbol>
    <symbol id="search" viewBox="0 0 24 24">
        <path d="M0,0H24V24H0Z" fill="none"/>
        <path  d="M15.5,14h-.79l-.28-.27a6.51,6.51,0,1,0-.7.7l.27.28v.79l5,4.99L20.49,19Zm-6,0A4.5,4.5,0,1,1,14,9.5,4.494,4.494,0,0,1,9.5,14Z"/>
    </symbol>
    <symbol id="settings" viewBox="0 0 28 28">
        <path d="M0,0H28V28H0Z" fill="none"/>
        <path d="M22.29,14.81a9.092,9.092,0,0,0,.082-1.143,9.092,9.092,0,0,0-.082-1.143L24.752,10.6a.589.589,0,0,0,.14-.747L22.558,5.815a.583.583,0,0,0-.513-.292.545.545,0,0,0-.2.035l-2.9,1.167A8.524,8.524,0,0,0,16.97,5.582L16.527,2.49A.569.569,0,0,0,15.955,2H11.288a.569.569,0,0,0-.572.49l-.443,3.092A8.963,8.963,0,0,0,8.3,6.725L5.4,5.558a.661.661,0,0,0-.21-.035.578.578,0,0,0-.5.292L2.352,9.852a.575.575,0,0,0,.14.747l2.462,1.925a9.252,9.252,0,0,0-.082,1.143,9.252,9.252,0,0,0,.082,1.143L2.492,16.735a.589.589,0,0,0-.14.747l2.333,4.037a.583.583,0,0,0,.513.292.545.545,0,0,0,.2-.035L8.3,20.608a8.524,8.524,0,0,0,1.972,1.143l.443,3.092a.569.569,0,0,0,.572.49h4.667a.569.569,0,0,0,.572-.49l.443-3.092a8.963,8.963,0,0,0,1.972-1.143l2.9,1.167a.661.661,0,0,0,.21.035.578.578,0,0,0,.5-.292l2.333-4.037a.589.589,0,0,0-.14-.747Zm-2.31-1.995a6.233,6.233,0,0,1,.058.852c0,.245-.023.5-.058.852l-.163,1.318,1.038.817,1.26.98L21.3,19.045l-1.482-.6L18.6,17.96l-1.05.793a6.833,6.833,0,0,1-1.458.852l-1.237.5-.187,1.318L14.438,23H12.8l-.222-1.575L12.4,20.107l-1.237-.5a6.62,6.62,0,0,1-1.435-.828L8.663,17.96l-1.237.5-1.482.595-.817-1.412,1.26-.98,1.038-.817L7.263,14.53c-.035-.362-.058-.63-.058-.863s.023-.5.058-.852L7.427,11.5,6.388,10.68,5.128,9.7l.817-1.412,1.482.6,1.213.49L9.69,8.58a6.833,6.833,0,0,1,1.458-.852l1.237-.5.187-1.318L12.8,4.333h1.622l.222,1.575.187,1.318,1.237.5a6.619,6.619,0,0,1,1.435.828l1.062.817,1.237-.5,1.482-.6L22.1,9.688l-1.248.992-1.038.817.163,1.318ZM13.622,9a4.667,4.667,0,1,0,4.667,4.667A4.665,4.665,0,0,0,13.622,9Zm0,7a2.333,2.333,0,1,1,2.333-2.333A2.34,2.34,0,0,1,13.622,16Z"
              transform="translate(0.378 0.333)" fill="#294d9c"/>
    </symbol>
    <symbol id="upload" viewBox="0 0 24 24">
        <g transform="translate(0)" opacity="0.54">
            <path d="M0,0H24V24H0Z" fill="none"/>
            <path d="M4,12l1.41,1.41L11,7.83V20h2V7.83l5.58,5.59L20,12,12,4Z"/>
        </g>
    </symbol>
    <symbol id="warning" viewBox="0 0 44 38">
        <path d="M0.916992 37.2497H43.0837L22.0003 0.833008L0.916992 37.2497ZM23.917 31.4997H20.0837V27.6663H23.917V31.4997ZM23.917 23.833H20.0837V16.1663H23.917V23.833Z"
              fill="#D68282"/>
    </symbol>
    <symbol id="barcode" viewBox="0 0 25 20" fill="none">
        <path d="M11 4.1H10.4C10.235 4.1 10.1 4.235 10.1 4.4V15.8C10.1 15.965 10.235 16.1 10.4 16.1H11C11.165 16.1 11.3 15.965 11.3 15.8V4.4C11.3 4.235 11.165 4.1 11 4.1ZM8.6 4.1H8C7.835 4.1 7.7 4.235 7.7 4.4V15.8C7.7 15.965 7.835 16.1 8 16.1H8.6C8.765 16.1 8.9 15.965 8.9 15.8V4.4C8.9 4.235 8.765 4.1 8.6 4.1ZM22.7 0.5H2.3C1.30625 0.5 0.5 1.30625 0.5 2.3V17.9C0.5 18.8938 1.30625 19.7 2.3 19.7H22.7C23.6938 19.7 24.5 18.8938 24.5 17.9V2.3C24.5 1.30625 23.6938 0.5 22.7 0.5ZM23.3 17.9C23.3 18.23 23.03 18.5 22.7 18.5H2.3C1.97 18.5 1.7 18.23 1.7 17.9V2.3C1.7 1.97 1.97 1.7 2.3 1.7H22.7C23.03 1.7 23.3 1.97 23.3 2.3V17.9ZM6.2 4.1H4.4C4.235 4.1 4.1 4.235 4.1 4.4V15.8C4.1 15.965 4.235 16.1 4.4 16.1H6.2C6.365 16.1 6.5 15.965 6.5 15.8V4.4C6.5 4.235 6.365 4.1 6.2 4.1ZM20.6 4.1H18.8C18.635 4.1 18.5 4.235 18.5 4.4V15.8C18.5 15.965 18.635 16.1 18.8 16.1H20.6C20.765 16.1 20.9 15.965 20.9 15.8V4.4C20.9 4.235 20.765 4.1 20.6 4.1ZM15.8 4.1H14C13.835 4.1 13.7 4.235 13.7 4.4V15.8C13.7 15.965 13.835 16.1 14 16.1H15.8C15.965 16.1 16.1 15.965 16.1 15.8V4.4C16.1 4.235 15.965 4.1 15.8 4.1Z"
              fill="#294D9C"/>
    </symbol>
    <symbol id="plus" viewBox="0 0 24 24">
        <path d="M0,0H24V24H0Z" fill="none"/>
        <path d="M19,13H13v6H11V13H5V11h6V5h2v6h6Z"/>
    </symbol>
    <symbol id="minus" viewBox="0 0 14 2">
        <path d="M14 2H0V0H14V2Z"/>
    </symbol>
    <symbol id="hamburger" viewBox="0 0 18 12">
        <path d="M0 12H18V10H0V12ZM0 7H18V5H0V7ZM0 0V2H18V0H0Z"/>
    </symbol>
    <symbol id="gravatar" viewBox="0 0 20 20">
        <path d="M10 0C4.48 0 0 4.48 0 10C0 15.52 4.48 20 10 20C15.52 20 20 15.52 20 10C20 4.48 15.52 0 10 0ZM5.07 16.28C5.5 15.38 8.12 14.5 10 14.5C11.88 14.5 14.51 15.38 14.93 16.28C13.57 17.36 11.86 18 10 18C8.14 18 6.43 17.36 5.07 16.28ZM16.36 14.83C14.93 13.09 11.46 12.5 10 12.5C8.54 12.5 5.07 13.09 3.64 14.83C2.62 13.49 2 11.82 2 10C2 5.59 5.59 2 10 2C14.41 2 18 5.59 18 10C18 11.82 17.38 13.49 16.36 14.83ZM10 4C8.06 4 6.5 5.56 6.5 7.5C6.5 9.44 8.06 11 10 11C11.94 11 13.5 9.44 13.5 7.5C13.5 5.56 11.94 4 10 4ZM10 9C9.17 9 8.5 8.33 8.5 7.5C8.5 6.67 9.17 6 10 6C10.83 6 11.5 6.67 11.5 7.5C11.5 8.33 10.83 9 10 9Z"/>
    </symbol>
    <symbol id="loyality" viewBox="0 0 24 24">
        <path d="M21.41 11.58L12.41 2.58C12.05 2.22 11.55 2 11 2H4C2.9 2 2 2.9 2 4V11C2 11.55 2.22 12.05 2.59 12.42L11.59 21.42C11.95 21.78 12.45 22 13 22C13.55 22 14.05 21.78 14.41 21.41L21.41 14.41C21.78 14.05 22 13.55 22 13C22 12.45 21.77 11.94 21.41 11.58ZM13 20.01L4 11V4H11V3.99L20 12.99L13 20.01Z"
              />
        <path d="M6.5 8C7.32843 8 8 7.32843 8 6.5C8 5.67157 7.32843 5 6.5 5C5.67157 5 5 5.67157 5 6.5C5 7.32843 5.67157 8 6.5 8Z"
              />
        <path d="M8.90002 12.55C8.90002 13.12 9.13002 13.62 9.50002 14L13 17.5L16.5 14C16.87 13.63 17.1 13.11 17.1 12.55C17.1 11.42 16.18 10.5 15.05 10.5C14.48 10.5 13.97 10.73 13.6 11.1L13 11.7L12.4 11.11C12.03 10.73 11.51 10.5 10.95 10.5C9.82002 10.5 8.90002 11.42 8.90002 12.55Z"
              />
    </symbol>
    <symbol id="dollar" viewBox="0 0 11 18">
        <path d="M5.79995 7.9C3.52995 7.31 2.79995 6.7 2.79995 5.75C2.79995 4.66 3.80995 3.9 5.49995 3.9C7.27995 3.9 7.93995 4.75 7.99995 6H10.2099C10.1399 4.28 9.08995 2.7 6.99995 2.19V0H3.99995V2.16C2.05995 2.58 0.499946 3.84 0.499946 5.77C0.499946 8.08 2.40995 9.23 5.19995 9.9C7.69995 10.5 8.19995 11.38 8.19995 12.31C8.19995 13 7.70995 14.1 5.49995 14.1C3.43995 14.1 2.62995 13.18 2.51995 12H0.319946C0.439946 14.19 2.07995 15.42 3.99995 15.83V18H6.99995V15.85C8.94995 15.48 10.4999 14.35 10.4999 12.3C10.4999 9.46 8.06995 8.49 5.79995 7.9Z"/>
    </symbol>
    <symbol id="replay" viewBox="0 0 16 20">
        <path d="M8 4V0L3 5L8 10V6C11.3 6 14 8.7 14 12C14 15.3 11.3 18 8 18C4.7 18 2 15.3 2 12H0C0 16.4 3.6 20 8 20C12.4 20 16 16.4 16 12C16 7.6 12.4 4 8 4Z"/>
    </symbol>
    <symbol id="repeat" viewBox="0 0 18 20">
        <path d="M4 5H14V8L18 4L14 0V3H2V9H4V5ZM14 15H4V12L0 16L4 20V17H16V11H14V15Z"/>
    </symbol>
    <symbol id="history" viewBox="0 0 21 18">
        <path d="M12 0C7.03 0 3 4.03 3 9H0L3.89 12.89L3.96 13.03L8 9H5C5 5.13 8.13 2 12 2C15.87 2 19 5.13 19 9C19 12.87 15.87 16 12 16C10.07 16 8.32 15.21 7.06 13.94L5.64 15.36C7.27 16.99 9.51 18 12 18C16.97 18 21 13.97 21 9C21 4.03 16.97 0 12 0ZM11 5V10L15.25 12.52L16.02 11.24L12.5 9.15V5H11Z"/>
    </symbol>
    <symbol id="settings" viewBox="0 0 20 20">
        <path d="M17.43 10.98C17.47 10.66 17.5 10.34 17.5 10C17.5 9.66 17.47 9.34 17.43 9.02L19.54 7.37C19.73 7.22 19.78 6.95 19.66 6.73L17.66 3.27C17.57 3.11 17.4 3.02 17.22 3.02C17.16 3.02 17.1 3.03 17.05 3.05L14.56 4.05C14.04 3.65 13.48 3.32 12.87 3.07L12.49 0.42C12.46 0.18 12.25 0 12 0H7.99996C7.74996 0 7.53996 0.18 7.50996 0.42L7.12996 3.07C6.51996 3.32 5.95996 3.66 5.43996 4.05L2.94996 3.05C2.88996 3.03 2.82996 3.02 2.76996 3.02C2.59996 3.02 2.42996 3.11 2.33996 3.27L0.339961 6.73C0.209961 6.95 0.269962 7.22 0.459962 7.37L2.56996 9.02C2.52996 9.34 2.49996 9.67 2.49996 10C2.49996 10.33 2.52996 10.66 2.56996 10.98L0.459962 12.63C0.269962 12.78 0.219961 13.05 0.339961 13.27L2.33996 16.73C2.42996 16.89 2.59996 16.98 2.77996 16.98C2.83996 16.98 2.89996 16.97 2.94996 16.95L5.43996 15.95C5.95996 16.35 6.51996 16.68 7.12996 16.93L7.50996 19.58C7.53996 19.82 7.74996 20 7.99996 20H12C12.25 20 12.46 19.82 12.49 19.58L12.87 16.93C13.48 16.68 14.04 16.34 14.56 15.95L17.05 16.95C17.11 16.97 17.17 16.98 17.23 16.98C17.4 16.98 17.57 16.89 17.66 16.73L19.66 13.27C19.78 13.05 19.73 12.78 19.54 12.63L17.43 10.98ZM15.45 9.27C15.49 9.58 15.5 9.79 15.5 10C15.5 10.21 15.48 10.43 15.45 10.73L15.31 11.86L16.2 12.56L17.28 13.4L16.58 14.61L15.31 14.1L14.27 13.68L13.37 14.36C12.94 14.68 12.53 14.92 12.12 15.09L11.06 15.52L10.9 16.65L10.7 18H9.29996L9.10996 16.65L8.94996 15.52L7.88996 15.09C7.45996 14.91 7.05996 14.68 6.65996 14.38L5.74996 13.68L4.68996 14.11L3.41996 14.62L2.71996 13.41L3.79996 12.57L4.68996 11.87L4.54996 10.74C4.51996 10.43 4.49996 10.2 4.49996 10C4.49996 9.8 4.51996 9.57 4.54996 9.27L4.68996 8.14L3.79996 7.44L2.71996 6.6L3.41996 5.39L4.68996 5.9L5.72996 6.32L6.62996 5.64C7.05996 5.32 7.46996 5.08 7.87996 4.91L8.93996 4.48L9.09996 3.35L9.29996 2H10.69L10.88 3.35L11.04 4.48L12.1 4.91C12.53 5.09 12.93 5.32 13.33 5.62L14.24 6.32L15.3 5.89L16.57 5.38L17.27 6.59L16.2 7.44L15.31 8.14L15.45 9.27ZM9.99996 6C7.78996 6 5.99996 7.79 5.99996 10C5.99996 12.21 7.78996 14 9.99996 14C12.21 14 14 12.21 14 10C14 7.79 12.21 6 9.99996 6ZM9.99996 12C8.89996 12 7.99996 11.1 7.99996 10C7.99996 8.9 8.89996 8 9.99996 8C11.1 8 12 8.9 12 10C12 11.1 11.1 12 9.99996 12Z"/>
    </symbol>
    <symbol id="exit" viewBox="0 0 18 18">
        <path d="M7.09 12.59L8.5 14L13.5 9L8.5 4L7.09 5.41L9.67 8H0V10H9.67L7.09 12.59ZM16 0H2C0.89 0 0 0.9 0 2V6H2V2H16V16H2V12H0V16C0 17.1 0.89 18 2 18H16C17.1 18 18 17.1 18 16V2C18 0.9 17.1 0 16 0Z"/>
    </symbol>
    <symbol id="question" viewBox="0 0 19 23">
        <path d="M9 22.59V18.99C3.99 18.73 0 14.57 0 9.5C0 4.26 4.26 0 9.5 0C14.74 0 19 4.26 19 9.5C19 14.45 15.56 19.43 10.43 21.9L9 22.59ZM9.5 2C5.36 2 2 5.36 2 9.5C2 13.64 5.36 17 9.5 17H11V19.3C14.64 17 17 13.22 17 9.5C17 5.36 13.64 2 9.5 2ZM8.5 13.5H10.5V15.5H8.5V13.5ZM10.5 12H8.5C8.5 8.75 11.5 9 11.5 7C11.5 5.9 10.6 5 9.5 5C8.4 5 7.5 5.9 7.5 7H5.5C5.5 4.79 7.29 3 9.5 3C11.71 3 13.5 4.79 13.5 7C13.5 9.5 10.5 9.75 10.5 12Z"/>
    </symbol>
    <symbol id="phone" viewBox="0 0 18 18">
        <path d="M3.54 2C3.6 2.89 3.75 3.76 3.99 4.59L2.79 5.79C2.38 4.59 2.12 3.32 2.03 2H3.54ZM13.4 14.02C14.25 14.26 15.12 14.41 16 14.47V15.96C14.68 15.87 13.41 15.61 12.2 15.21L13.4 14.02ZM4.5 0H1C0.45 0 0 0.45 0 1C0 10.39 7.61 18 17 18C17.55 18 18 17.55 18 17V13.51C18 12.96 17.55 12.51 17 12.51C15.76 12.51 14.55 12.31 13.43 11.94C13.33 11.9 13.22 11.89 13.12 11.89C12.86 11.89 12.61 11.99 12.41 12.18L10.21 14.38C7.38 12.93 5.06 10.62 3.62 7.79L5.82 5.59C6.1 5.31 6.18 4.92 6.07 4.57C5.7 3.45 5.5 2.25 5.5 1C5.5 0.45 5.05 0 4.5 0Z"/>
    </symbol>
    <symbol id="cash" viewBox="0 0 20 16">
        <path d="M13 12H16C16.55 12 17 11.55 17 11V5C17 4.45 16.55 4 16 4H13C12.45 4 12 4.45 12 5V11C12 11.55 12.45 12 13 12ZM14 6H15V10H14V6ZM7 12H10C10.55 12 11 11.55 11 11V5C11 4.45 10.55 4 10 4H7C6.45 4 6 4.45 6 5V11C6 11.55 6.45 12 7 12ZM8 6H9V10H8V6ZM3 4H5V12H3V4ZM0 0V16H20V0H0ZM18 14H2V2H18V14Z"/>
    </symbol>
    <symbol id="card" viewBox="0 0 20 16">
        <path d="M18 0H2C0.89 0 0.00999999 0.89 0.00999999 2L0 14C0 15.11 0.89 16 2 16H18C19.11 16 20 15.11 20 14V2C20 0.89 19.11 0 18 0ZM18 14H2V8H18V14ZM18 4H2V2H18V4Z"/>
    </symbol>
    <symbol id="stack" viewBox="0 0 12 13">
        <path d="M5.99333 10.6511L1.08 7.08479L0 7.86901L6 12.2258L12 7.86901L10.9133 7.07857L5.99333 10.6511ZM6 9.07023L10.9067 5.5039L12 4.71346L6 0.356689L0 4.71346L1.08667 5.5039L6 9.07023ZM6 1.93135L9.82667 4.71346L6 7.49557L2.17333 4.71346L6 1.93135Z"/>
    </symbol>
    <symbol id="check_circle" viewBox="0 0 20 20">
        <path d="M10 0C4.48 0 0 4.48 0 10C0 15.52 4.48 20 10 20C15.52 20 20 15.52 20 10C20 4.48 15.52 0 10 0ZM10 18C5.59 18 2 14.41 2 10C2 5.59 5.59 2 10 2C14.41 2 18 5.59 18 10C18 14.41 14.41 18 10 18ZM14.59 5.58L8 12.17L5.41 9.59L4 11L8 15L16 7L14.59 5.58Z"/>
    </symbol>
    <symbol id="print" viewBox="0 0 20 18">
        <path d="M17 5H3C1.34 5 0 6.34 0 8V14H4V18H16V14H20V8C20 6.34 18.66 5 17 5ZM14 16H6V11H14V16ZM17 9C16.45 9 16 8.55 16 8C16 7.45 16.45 7 17 7C17.55 7 18 7.45 18 8C18 8.55 17.55 9 17 9ZM16 0H4V4H16V0Z"/>
    </symbol>

     <symbol id="list" viewBox="0 0 489.7 489.7" >
       <path d="M52.7,134.75c29.1,0,52.7-23.7,52.7-52.7s-23.6-52.8-52.7-52.8S0,52.95,0,81.95S23.7,134.75,52.7,134.75z M52.7,53.75
			c15.6,0,28.2,12.7,28.2,28.2s-12.7,28.2-28.2,28.2s-28.2-12.7-28.2-28.2S37.2,53.75,52.7,53.75z"/>
		<path d="M52.7,297.55c29.1,0,52.7-23.7,52.7-52.7s-23.6-52.7-52.7-52.7S0,215.75,0,244.85S23.7,297.55,52.7,297.55z M52.7,216.65
			c15.6,0,28.2,12.7,28.2,28.2s-12.7,28.2-28.2,28.2s-28.2-12.6-28.2-28.2S37.2,216.65,52.7,216.65z"/>
		<path d="M52.7,460.45c29.1,0,52.7-23.7,52.7-52.7c0-29.1-23.7-52.7-52.7-52.7S0,378.75,0,407.75C0,436.75,23.7,460.45,52.7,460.45
			z M52.7,379.45c15.6,0,28.2,12.7,28.2,28.2c0,15.6-12.7,28.2-28.2,28.2s-28.2-12.7-28.2-28.2C24.5,392.15,37.2,379.45,52.7,379.45
			z"/>
		<path d="M175.9,94.25h301.5c6.8,0,12.3-5.5,12.3-12.3s-5.5-12.3-12.3-12.3H175.9c-6.8,0-12.3,5.5-12.3,12.3
			S169.1,94.25,175.9,94.25z"/>
		<path d="M175.9,257.15h301.5c6.8,0,12.3-5.5,12.3-12.3s-5.5-12.3-12.3-12.3H175.9c-6.8,0-12.3,5.5-12.3,12.3
			S169.1,257.15,175.9,257.15z"/>
		<path d="M175.9,419.95h301.5c6.8,0,12.3-5.5,12.3-12.3s-5.5-12.3-12.3-12.3H175.9c-6.8,0-12.3,5.5-12.3,12.3
			S169.1,419.95,175.9,419.95z"/>
    </symbol>
    <symbol id="grid" viewBox="-19 -19 600 600">
      <path d="m251.25 12.5c0-6.90625-5.59375-12.5-12.5-12.5h-226.25c-6.90625 0-12.5 5.59375-12.5 12.5v226.25c0 6.90625 5.59375 12.5 12.5 12.5h226.25c6.90625 0 12.5-5.59375 12.5-12.5zm-25 213.75h-201.25v-201.25h201.25zm0 0"/>
      <path d="m562.5 12.5c0-6.90625-5.59375-12.5-12.5-12.5h-226.25c-6.90625 0-12.5 5.59375-12.5 12.5v226.25c0 6.90625 5.59375 12.5 12.5 12.5h226.25c6.90625 0 12.5-5.59375 12.5-12.5zm-25 213.75h-201.25v-201.25h201.25zm0 0"/>
      <path d="m251.25 323.75c0-6.90625-5.59375-12.5-12.5-12.5h-226.25c-6.90625 0-12.5 5.59375-12.5 12.5v226.25c0 6.90625 5.59375 12.5 12.5 12.5h226.25c6.90625 0 12.5-5.59375 12.5-12.5zm-25 212.5h-201.25v-200h201.25zm0 0"/>
      <path d="m562.5 323.75c0-6.90625-5.59375-12.5-12.5-12.5h-226.25c-6.90625 0-12.5 5.59375-12.5 12.5v226.25c0 6.90625 5.59375 12.5 12.5 12.5h226.25c6.90625 0 12.5-5.59375 12.5-12.5zm-25 212.5h-201.25v-200h201.25zm0 0"/>
    </symbol>
    <symbol id="arrow_oblic" viewBox="0 0 13 13">
       <path d="M1.34314 0.342926L1.34314 2.33697L9.24153 2.34404L0.636034 10.9495L2.05025 12.3637L10.6557 3.75825L10.6487 11.6566L12.6569 11.6566L12.6569 0.342925L1.34314 0.342926Z"/>
    </symbol>

    <symbol  id="refresh" viewBox="0 0 24 24">
      <g clip-path="url(#clip0)">
        <path d="M12 4V1L8 5L12 9V6C15.31 6 18 8.69 18 12C18 13.01 17.75 13.97 17.3 14.8L18.76 16.26C19.54 15.03 20 13.57 20 12C20 7.58 16.42 4 12 4ZM12 18C8.69 18 6 15.31 6 12C6 10.99 6.25 10.03 6.7 9.2L5.24 7.74C4.46 8.97 4 10.43 4 12C4 16.42 7.58 20 12 20V23L16 19L12 15V18Z" fill="#294D9C"/>
      </g>
      <defs>
        <clipPath id="clip0">
          <rect width="24" height="24" fill="white"/>
        </clipPath>
      </defs>
    </symbol>
    <symbol id="logout" viewBox="0 0 512 512">
          <path d="M505.664,243.739l-54.783-38.622c-9.926-6.997-23.645,0.128-23.645,12.26v23.622H164.196
              c-8.284,0-15.001,6.716-15.001,15.001S155.912,271,164.196,271h263.038v23.621c0,12.212,13.792,19.204,23.644,12.26l54.783-38.622
              C514.027,262.365,514.196,249.767,505.664,243.739z"/>
            <path d="M430.471,352.317c-7.169-4.146-16.347-1.698-20.496,5.474c-35.236,60.916-101.103,101.811-176.372,101.811
                c-112.266,0-203.602-91.336-203.602-203.602S121.337,52.398,233.603,52.398c75.319,0,141.156,40.933,176.371,101.809
                c4.148,7.172,13.328,9.619,20.496,5.474c7.171-4.148,9.621-13.325,5.474-20.496C395.418,69.127,319.729,22.397,233.603,22.397
                C104.49,22.397,0,126.876,0,256c0,129.113,104.479,233.603,233.603,233.603c86.163,0,161.833-46.763,202.342-116.79
                C440.092,365.642,437.642,356.466,430.471,352.317z"/>
    </symbol>
</svg>
